<?xml version="1.0" encoding="utf-8"?>
<!-- Generator: Adobe Illustrator 16.0.0, SVG Export Plug-In . SVG Version: 6.00 Build 0)  -->
<!DOCTYPE svg PUBLIC "-//W3C//DTD SVG 1.1//EN" "http://www.w3.org/Graphics/SVG/1.1/DTD/svg11.dtd">
<svg version="1.1" id="Layer_1" xmlns="http://www.w3.org/2000/svg" xmlns:xlink="http://www.w3.org/1999/xlink" x="0px" y="0px"
	 width="512px" height="512px" viewBox="0 0 512 512" enable-background="new 0 0 512 512" xml:space="preserve">
<path fill="#FFFFFF" d="M164.555,246.516h-34.703v-88.211c0-6.539-6.008-10.93-14.945-10.93s-14.945,4.391-14.945,10.93v104.438
	c0,6.426,5.746,11.086,13.66,11.086h50.934c6.238,0,10.766-5.742,10.766-13.656C175.32,252.129,170.895,246.516,164.555,246.516z"/>
<path fill="#FFFFFF" d="M197.668,147.375c-8.938,0-14.941,4.391-14.941,10.93v104.438c0,6.527,6.145,11.086,14.941,11.086
	c8.66,0,14.941-4.66,14.941-11.086V158.305C212.609,151.766,206.605,147.375,197.668,147.375z"/>
<path fill="#FFFFFF" d="M299.871,147.375c-8.938,0-14.941,4.391-14.941,10.93v46.102l-22.527-43.539
	c-5.5-10.465-9.887-13.492-19.566-13.492c-8.938,0-14.945,4.457-14.945,11.09v104.277c0,6.527,6.145,11.086,14.945,11.086
	c8.656,0,14.941-4.66,14.941-11.086v-46.637l26.102,48.801c3.246,5.922,8.629,8.922,15.996,8.922c8.656,0,14.941-4.66,14.941-11.086
	V158.305C314.816,151.766,308.813,147.375,299.871,147.375z"/>
<path fill="#FFFFFF" d="M400.949,174.691c6.43,0,11.09-5.809,11.09-13.816c0-7.824-4.66-13.5-11.09-13.5H343.75
	c-7.914,0-13.656,4.664-13.656,11.09v104.277c0,6.426,5.742,11.086,13.656,11.086h57.199c6.43,0,11.09-5.676,11.09-13.5
	c0-8.004-4.66-13.813-11.09-13.813H359.98v-23.297h19.922c7.203,0,11.086-6.457,11.086-12.535c0-7.328-4.766-12.855-11.086-12.855
	H359.98v-23.137H400.949z"/>
<path fill="#FFFFFF" d="M435.863,60.645C387.684,21.535,323.805,0,256,0S124.32,21.535,76.137,60.645
	C27.039,100.488,0,153.746,0,210.602c0,53.504,24.348,104.473,68.555,143.516c39.934,35.27,92.961,58.039,150.535,64.875v55.855
	c0,8.285,6.715,15,15,15c25.945,0,96.18-31.84,155.477-77.527c35.422-27.293,63.809-56.602,84.371-87.121
	C499.191,287.711,512,249.152,512,210.602C512,153.746,484.961,100.488,435.863,60.645z M371.258,388.555
	c-26.348,20.301-56.844,39.168-85.867,53.129c-15.652,7.531-27.703,12.156-36.305,14.852v-51.168
	c0-7.859-6.066-14.387-13.902-14.961C120.129,381.984,30,303.004,30,210.602C30,111.02,131.383,30,256,30s226,81.02,226,180.602
	C482,287.16,421.777,349.633,371.258,388.555z"/>
</svg>
